\relax 
\@writefile{toc}{\contentsline {section}{\numberline {1}Introduction}{1}}
\citation{Babb}
\citation{Soh}
\citation{Leavitt}
\citation{ProsocialLearn}
\citation{McCrea}
\@writefile{toc}{\contentsline {section}{\numberline {2}Literature Review}{2}}
\@writefile{toc}{\contentsline {subsection}{\numberline {2.1}Why a Portable Gaming Console}{2}}
\citation{Cox}
\citation{Melanie}
\citation{Lindsay}
\citation{Pearce}
\citation{Kubitza}
\citation{PracAVR}
\citation{IntroMCU}
\citation{Arduino}
\citation{PracAVR}
\citation{Arduino}
\citation{ArdShields}
\citation{Hodges}
\@writefile{toc}{\contentsline {subsection}{\numberline {2.2}What to Develop With}{3}}
\citation{Vujovic}
\citation{Vujovic}
\citation{Perisic}
\citation{Vujovic}
\citation{GadgeteerHome}
\citation{Hodges}
\citation{Hodges}
\@writefile{toc}{\contentsline {subsection}{\numberline {2.3}Features}{4}}
\citation{Tomesh:2014:DGC:2658537.2662411}
\citation{Tomesh:2014:DGC:2658537.2662411}
\citation{IntroMCU,digitalPins}
\citation{analogInput}
\citation{pwmPins}
\citation{vitaSpecs}
\citation{dsSpec}
\citation{gameduino}
\citation{beginArd}
\citation{PracAVR}
\citation{Tomesh:2014:DGC:2658537.2662411}
\@writefile{lof}{\contentsline {figure}{\numberline {1}{\ignorespaces Game Console Schematic}}{5}}
\newlabel{fig:DIYConsoleDevSchematic}{{1}{5}}
\citation{gameduino}
\citation{Anderson:2013:PA:2517746}
\citation{memory}
\citation{beginArd}
\citation{Anderson:2013:PA:2517746}
\citation{Gould:1985:DUK:3166.3170}
\@writefile{toc}{\contentsline {subsubsection}{\numberline {2.3.1}Optional Features}{6}}
\@writefile{toc}{\contentsline {subsection}{\numberline {2.4}Form and Design}{6}}
\citation{Hodges:2013:EPP:2460625.2460670}
\citation{Schmidt}
\citation{ArduinoProjectsBook}
\@writefile{lof}{\contentsline {figure}{\numberline {2}{\ignorespaces Style Ranking}}{7}}
\newlabel{fig:HodgesStyleRanking}{{2}{7}}
\@writefile{lof}{\contentsline {figure}{\numberline {3}{\ignorespaces LED and Button Schematic}}{8}}
\newlabel{fig:simpleLEDandButton}{{3}{8}}
\@writefile{toc}{\contentsline {section}{\numberline {3}Preliminary Progress}{8}}
\@writefile{lof}{\contentsline {figure}{\numberline {4}{\ignorespaces LED and Button 2}}{9}}
\newlabel{fig:lessSimpleLEDandButton}{{4}{9}}
\citation{ArduinoProjectsBook}
\citation{ArduinoProjectsBook}
\@writefile{lof}{\contentsline {figure}{\numberline {5}{\ignorespaces Crystal Ball Schematic}}{10}}
\newlabel{fig:CrystalBall}{{5}{10}}
\@writefile{lol}{\contentsline {lstlisting}{code/CrystalBall.ino}{11}}
\citation{pwmPins}
\@writefile{toc}{\contentsline {section}{\numberline {4}Future Planned Work}{12}}
\citation{Hodges:2013:EPP:2460625.2460670}
\@writefile{lof}{\contentsline {figure}{\numberline {6}{\ignorespaces Six Buttons and an LCD}}{13}}
\newlabel{fig:LCDandButtonsExample}{{6}{13}}
\@writefile{toc}{\contentsline {section}{\numberline {5}Conclusion}{13}}
\bibstyle{apalike}
\bibdata{bib}
\bibcite{Arduino}{{1}{2015}{{Ard}}{{}}}
\bibcite{Anderson:2013:PA:2517746}{{2}{2013}{{Anderson and Cervo}}{{}}}
\bibcite{analogInput}{{3}{2015a}{{Arduino}}{{}}}
\bibcite{memory}{{4}{2015b}{{Arduino}}{{}}}
\bibcite{digitalPins}{{5}{2015c}{{Arduino}}{{}}}
\bibcite{pwmPins}{{6}{2015d}{{Arduino}}{{}}}
\bibcite{Babb}{{7}{2013}{{Babb and Terry}}{{}}}
\bibcite{IntroMCU}{{8}{1998}{{Bannatyne}}{{}}}
\bibcite{gameduino}{{9}{2011}{{Bowman}}{{}}}
\bibcite{Cox}{{10}{1986}{{Cox}}{{}}}
\bibcite{ArduinoProjectsBook}{{11}{2015}{{Fitzgerald}}{{}}}
\bibcite{Gould:1985:DUK:3166.3170}{{12}{1985}{{Gould and Lewis}}{{}}}
\bibcite{Hodges}{{13}{2012}{{Hodges}}{{}}}
\bibcite{Hodges:2013:EPP:2460625.2460670}{{14}{2013}{{Hodges et~al.}}{{}}}
\bibcite{dsSpec}{{15}{2014}{{Korth}}{{}}}
\bibcite{Kubitza}{{16}{2013}{{Kubitza}}{{}}}
\bibcite{Leavitt}{{17}{2003}{{Leavitt}}{{}}}
\bibcite{Lindsay}{{18}{1982}{{Lindsay}}{{}}}
\bibcite{McCrea}{{19}{2011}{{McCrea}}{{}}}
\bibcite{beginArd}{{20}{2010}{{McRoberts}}{{}}}
\bibcite{GadgeteerHome}{{21}{2013}{{Microsoft}}{{}}}
\bibcite{ArdShields}{{22}{2015}{{Oxer}}{{}}}
\bibcite{Pearce}{{23}{2012}{{Pearce}}{{}}}
\bibcite{Perisic}{{24}{2014}{{Perisic}}{{}}}
\bibcite{Schmidt}{{25}{2011}{{Schmidt et~al.}}{{}}}
\bibcite{Soh}{{26}{2008}{{Soh}}{{}}}
\bibcite{vitaSpecs}{{27}{2011}{{Sony}}{{}}}
\bibcite{ProsocialLearn}{{28}{2015}{{Star}}{{}}}
\bibcite{Melanie}{{29}{2012}{{Swalwell}}{{}}}
\bibcite{Tomesh:2014:DGC:2658537.2662411}{{30}{2014}{{Tomesh and Hepting}}{{}}}
\bibcite{PracAVR}{{31}{2012}{{Trevennor}}{{}}}
\bibcite{Vujovic}{{32}{2014}{{Vujovic}}{{}}}
