\contentsline {section}{\numberline {1}Introduction}{1}
\contentsline {section}{\numberline {2}Literature Review}{2}
\contentsline {subsection}{\numberline {2.1}Why a Portable Gaming Console}{2}
\contentsline {subsection}{\numberline {2.2}What to Develop With}{3}
\contentsline {subsection}{\numberline {2.3}Features}{4}
\contentsline {subsubsection}{\numberline {2.3.1}Optional Features}{6}
\contentsline {subsection}{\numberline {2.4}Form and Design}{6}
\contentsline {section}{\numberline {3}Preliminary Progress}{8}
\contentsline {section}{\numberline {4}Future Planned Work}{12}
\contentsline {section}{\numberline {5}Conclusion}{13}
