v 20130925 2
C 40000 40000 0 0 0 title-B.sym
C 41700 42100 1 0 0 arduino_uno_rev3.sym
{
T 48100 50200 5 10 1 1 0 6 1
refdes=U?
T 42100 50400 5 10 0 0 0 0 1
device=ARDUINO UNO R3
T 42100 50600 5 10 0 0 0 0 1
footprint=arduino_uno_rev3_fpt
}
B 52600 43800 2200 1800 3 0 0 0 -1 -1 0 -1 -1 -1 -1 -1
P 52200 45300 52600 45300 1 0 0
{
T 52200 45300 5 10 0 0 0 0 1
pintype=unknown
T 52655 45295 5 10 1 1 0 0 1
pinlabel=SW
T 52505 45345 5 10 1 1 0 6 1
pinnumber=0
T 52200 45300 5 10 0 0 0 0 1
pinseq=0
}
P 52200 45000 52600 45000 1 0 0
{
T 52200 45000 5 10 0 0 0 0 1
pintype=unknown
T 52655 44995 5 10 1 1 0 0 1
pinlabel=VRy
T 52505 45045 5 10 1 1 0 6 1
pinnumber=1
T 52200 45000 5 10 0 0 0 0 1
pinseq=0
}
P 52200 44700 52600 44700 1 0 0
{
T 52200 44700 5 10 0 0 0 0 1
pintype=unknown
T 52655 44695 5 10 1 1 0 0 1
pinlabel=VRx
T 52505 44745 5 10 1 1 0 6 1
pinnumber=2
T 52200 44700 5 10 0 0 0 0 1
pinseq=0
}
P 52200 44400 52600 44400 1 0 0
{
T 52200 44400 5 10 0 0 0 0 1
pintype=unknown
T 52655 44395 5 10 1 1 0 0 1
pinlabel=+5V
T 52505 44445 5 10 1 1 0 6 1
pinnumber=3
T 52200 44400 5 10 0 0 0 0 1
pinseq=0
}
P 52200 44100 52600 44100 1 0 0
{
T 52200 44100 5 10 0 0 0 0 1
pintype=unknown
T 52655 44095 5 10 1 1 0 0 1
pinlabel=GND
T 52505 44145 5 10 1 1 0 6 1
pinnumber=4
T 52200 44100 5 10 0 0 0 0 1
pinseq=0
}
T 53600 44600 9 10 1 0 0 0 2
Analog 
Stick
N 52200 45300 49900 45300 4
N 49900 45300 49900 44500 4
N 49900 44500 48400 44500 4
N 52200 45000 43000 45000 4
N 43000 45000 43000 46500 4
N 43000 46500 41800 46500 4
N 52200 44700 43400 44700 4
N 43400 44700 43400 46100 4
N 43400 46100 41800 46100 4
N 52200 44400 49200 44400 4
N 49200 44400 49200 48100 4
N 49200 48100 41800 48100 4
N 52200 44100 49800 44100 4
N 49800 44100 49800 47700 4
N 49800 47700 41800 47700 4
T 50100 40800 9 10 1 0 0 0 1
Analog Joystick Test
