v 20130925 2
C 40000 40000 0 0 0 title-B.sym
C 40800 42000 1 0 0 arduino_uno_rev3.sym
{
T 47200 50100 5 10 1 1 0 6 1
refdes=U?
T 41200 50300 5 10 0 0 0 0 1
device=ARDUINO UNO R3
T 41200 50500 5 10 0 0 0 0 1
footprint=arduino_uno_rev3_fpt
}
C 53000 45000 1 270 0 switch-pushbutton-no-1.sym
{
T 53300 44600 5 10 0 1 270 0 1
refdes=S?
T 53600 44600 5 10 0 0 270 0 1
device=SWITCH_PUSHBUTTON_NO
}
C 53000 47800 1 270 0 switch-pushbutton-no-1.sym
{
T 53300 47400 5 10 0 1 270 0 1
refdes=S?
T 53600 47400 5 10 0 0 270 0 1
device=SWITCH_PUSHBUTTON_NO
}
C 50400 47100 1 0 0 resistor-1.sym
{
T 50700 47500 5 10 0 0 0 0 1
device=RESISTOR
T 50600 47400 5 10 1 1 0 0 1
refdes=10K
}
C 50100 43800 1 0 0 resistor-1.sym
{
T 50400 44200 5 10 0 0 0 0 1
device=RESISTOR
T 50300 44100 5 10 1 1 0 0 1
refdes=10K
}
N 40800 47800 54000 47800 4
N 53000 46800 53000 46500 4
N 48300 46500 53000 46500 4
N 48300 43200 48300 46500 4
N 48300 43200 47500 43200 4
N 51300 46500 51300 47200 4
N 40900 47200 50400 47200 4
N 53000 45000 54000 45000 4
N 51000 43900 53000 43900 4
N 52000 42800 52000 43900 4
N 52000 42800 47500 42800 4
N 50100 43900 47900 43900 4
N 47900 43900 47900 47200 4
N 54000 45000 54000 47800 4
N 53000 44000 53000 43900 4
