\relax 
\@writefile{toc}{\contentsline {section}{\numberline {1}Introduction}{2}}
\@writefile{toc}{\contentsline {section}{\numberline {2}Literature Review}{2}}
\citation{Babb}
\citation{PopCap}
\citation{Leavitt}
\citation{ProsocialLearn}
\citation{McCrea}
\citation{Cox}
\citation{Melanie}
\citation{Lindsay}
\citation{Pearce}
\citation{Kubitza}
\@writefile{toc}{\contentsline {subsection}{\numberline {2.1}Why a Portable Gaming Console}{3}}
\citation{PracAVR}
\citation{IntroMCU}
\citation{Arduino}
\citation{PracAVR}
\citation{Arduino}
\citation{ArdShields}
\citation{Hodges}
\citation{Vujovic}
\citation{Vujovic}
\citation{Perisic,Vujovic}
\@writefile{toc}{\contentsline {subsection}{\numberline {2.2}What to Develop With}{4}}
\citation{GadgeteerHome}
\citation{Hodges}
\citation{Hodges}
\citation{Tomesh:2014:DGC:2658537.2662411}
\citation{Tomesh:2014:DGC:2658537.2662411}
\citation{IntroMCU,digitalPins}
\citation{analogInput}
\citation{pwmPins}
\citation{vitaSpecs}
\citation{dsSpec}
\citation{gameduino}
\citation{beginArd,PracAVR,Tomesh:2014:DGC:2658537.2662411}
\@writefile{toc}{\contentsline {subsection}{\numberline {2.3}Features}{5}}
\citation{gameduino}
\citation{Anderson:2013:PA:2517746}
\@writefile{lof}{\contentsline {figure}{\numberline {1}{\ignorespaces Game Console Schematic}}{6}}
\newlabel{fig:DIYConsoleDevSchematic}{{1}{6}}
\@writefile{toc}{\contentsline {subsubsection}{\numberline {2.3.1}Optional Features}{6}}
\citation{memory}
\citation{beginArd}
\citation{Anderson:2013:PA:2517746}
\citation{Gould:1985:DUK:3166.3170}
\citation{Hodges:2013:EPP:2460625.2460670}
\@writefile{toc}{\contentsline {subsection}{\numberline {2.4}Form and Design}{7}}
\citation{Schmidt}
\citation{ArduinoProjectsBook}
\@writefile{lof}{\contentsline {figure}{\numberline {2}{\ignorespaces Style Ranking}}{8}}
\newlabel{fig:HodgesStyleRanking}{{2}{8}}
\@writefile{toc}{\contentsline {section}{\numberline {3}Preliminary Work}{8}}
\@writefile{lof}{\contentsline {figure}{\numberline {3}{\ignorespaces LED and Button Schematic}}{9}}
\newlabel{fig:simpleLEDandButton}{{3}{9}}
\@writefile{lof}{\contentsline {figure}{\numberline {4}{\ignorespaces LED and Button 2}}{10}}
\newlabel{fig:lessSimpleLEDandButton}{{4}{10}}
\citation{ArduinoProjectsBook}
\citation{ArduinoProjectsBook}
\@writefile{lol}{\contentsline {lstlisting}{code/CrystalBall.ino}{11}}
\@writefile{lof}{\contentsline {figure}{\numberline {5}{\ignorespaces Crystal Ball Schematic}}{12}}
\newlabel{fig:CrystalBall}{{5}{12}}
\citation{pwmPins}
\@writefile{toc}{\contentsline {section}{\numberline {4}Input}{14}}
\newlabel{input}{{4}{14}}
\@writefile{lof}{\contentsline {figure}{\numberline {6}{\ignorespaces Analog Joystick}}{14}}
\newlabel{fig:joystick}{{6}{14}}
\@writefile{toc}{\contentsline {paragraph}{\nonumberline •}{14}}
\@writefile{lof}{\contentsline {figure}{\numberline {7}{\ignorespaces Joystick example schematic}}{15}}
\newlabel{fig:joystickSchematic}{{7}{15}}
\@writefile{toc}{\contentsline {paragraph}{\nonumberline •}{16}}
\@writefile{toc}{\contentsline {paragraph}{\nonumberline •}{16}}
\@writefile{toc}{\contentsline {paragraph}{\nonumberline •}{16}}
\@writefile{lof}{\contentsline {figure}{\numberline {8}{\ignorespaces Example schematic of two buttons connected to an Arduino}}{17}}
\newlabel{fig:twoButtonSchematic}{{8}{17}}
\@writefile{toc}{\contentsline {paragraph}{\nonumberline •}{18}}
\@writefile{toc}{\contentsline {section}{\numberline {5}Device Prototype}{18}}
\@writefile{toc}{\contentsline {paragraph}{\nonumberline •}{18}}
\@writefile{toc}{\contentsline {paragraph}{\nonumberline •}{19}}
\@writefile{toc}{\contentsline {section}{\numberline {6}Game}{19}}
\@writefile{lof}{\contentsline {figure}{\numberline {9}{\ignorespaces Schematic for device prototype}}{20}}
\newlabel{fig:prototypeSchem}{{9}{20}}
\citation{SpaceInvaders}
\@writefile{toc}{\contentsline {subsection}{\numberline {6.1}Game Design}{21}}
\@writefile{lof}{\contentsline {figure}{\numberline {10}{\ignorespaces Space Invaders gameplay}}{21}}
\newlabel{fig:spaceInvadersGameplay}{{10}{21}}
\@writefile{toc}{\contentsline {subsubsection}{\numberline {6.1.1}Input}{21}}
\@writefile{toc}{\contentsline {subsubsection}{\numberline {6.1.2}Graphics}{22}}
\@writefile{lof}{\contentsline {figure}{\numberline {11}{\ignorespaces Space Invader}}{22}}
\newlabel{fig:invader}{{11}{22}}
\@writefile{toc}{\contentsline {subsubsection}{\numberline {6.1.3}Level Progression}{23}}
\@writefile{toc}{\contentsline {subsection}{\numberline {6.2}Implementation}{23}}
\@writefile{toc}{\contentsline {subsubsection}{\numberline {6.2.1}Input}{23}}
\@writefile{toc}{\contentsline {paragraph}{\nonumberline •}{23}}
\@writefile{toc}{\contentsline {paragraph}{\nonumberline •}{24}}
\citation{ArduinoIDE}
\@writefile{toc}{\contentsline {subsubsection}{\numberline {6.2.2}Graphics}{26}}
\@writefile{toc}{\contentsline {paragraph}{\nonumberline •}{27}}
\citation{Adafruit_ILI9341}
\@writefile{toc}{\contentsline {paragraph}{\nonumberline •}{28}}
\@writefile{toc}{\contentsline {paragraph}{\nonumberline •}{28}}
\@writefile{toc}{\contentsline {paragraph}{\nonumberline •}{31}}
\@writefile{toc}{\contentsline {paragraph}{\nonumberline •}{31}}
\@writefile{toc}{\contentsline {subsubsection}{\numberline {6.2.3}Player Update}{32}}
\@writefile{toc}{\contentsline {paragraph}{\nonumberline •}{33}}
\@writefile{toc}{\contentsline {paragraph}{\nonumberline Shooting}{34}}
\@writefile{toc}{\contentsline {paragraph}{\nonumberline •}{35}}
\@writefile{toc}{\contentsline {paragraph}{\nonumberline •}{35}}
\@writefile{toc}{\contentsline {paragraph}{\nonumberline •}{38}}
\@writefile{toc}{\contentsline {subsubsection}{\numberline {6.2.4}Level Progression}{38}}
\@writefile{toc}{\contentsline {paragraph}{\nonumberline •}{39}}
\@writefile{toc}{\contentsline {paragraph}{\nonumberline •}{41}}
\@writefile{toc}{\contentsline {subsubsection}{\numberline {6.2.5}Collision Detection}{43}}
\@writefile{toc}{\contentsline {subsubsection}{\numberline {6.2.6}Problems Encountered}{45}}
\@writefile{toc}{\contentsline {paragraph}{\nonumberline •}{45}}
\@writefile{toc}{\contentsline {paragraph}{\nonumberline •}{45}}
\@writefile{toc}{\contentsline {paragraph}{\nonumberline •}{45}}
\citation{gameduino}
\citation{Hodges:2013:EPP:2460625.2460670}
\@writefile{toc}{\contentsline {section}{\numberline {7}Possible Future Work}{46}}
\@writefile{toc}{\contentsline {paragraph}{\nonumberline •}{46}}
\@writefile{toc}{\contentsline {paragraph}{\nonumberline •}{46}}
\@writefile{toc}{\contentsline {section}{\numberline {8}Critical Appraisal}{46}}
\bibstyle{apalike}
\bibdata{bib}
\bibcite{Arduino}{{1}{2015}{{Ard}}{{}}}
\bibcite{Anderson:2013:PA:2517746}{{2}{2013}{{Anderson and Cervo}}{{}}}
\bibcite{analogInput}{{3}{2015a}{{Arduino}}{{}}}
\bibcite{memory}{{4}{2015b}{{Arduino}}{{}}}
\bibcite{digitalPins}{{5}{2015c}{{Arduino}}{{}}}
\bibcite{pwmPins}{{6}{2015d}{{Arduino}}{{}}}
\bibcite{ArduinoIDE}{{7}{2016}{{Arduino}}{{}}}
\bibcite{Babb}{{8}{2013}{{Babb and Terry}}{{}}}
\bibcite{IntroMCU}{{9}{1998}{{Bannatyne}}{{}}}
\bibcite{gameduino}{{10}{2011}{{Bowman}}{{}}}
\bibcite{SpaceInvaders}{{11}{2012}{{Corp.}}{{}}}
\bibcite{Cox}{{12}{1986}{{Cox}}{{}}}
\@writefile{toc}{\contentsline {section}{\numberline {9}Conclusion}{47}}
\@writefile{toc}{\contentsline {paragraph}{\nonumberline •}{47}}
\bibcite{ArduinoProjectsBook}{{13}{2015}{{Fitzgerald}}{{}}}
\bibcite{Gould:1985:DUK:3166.3170}{{14}{1985}{{Gould and Lewis}}{{}}}
\bibcite{PopCap}{{15}{2012}{{Group}}{{}}}
\bibcite{Hodges}{{16}{2012}{{Hodges et~al.}}{{}}}
\bibcite{Hodges:2013:EPP:2460625.2460670}{{17}{2013}{{Hodges et~al.}}{{}}}
\bibcite{dsSpec}{{18}{2014}{{Korth}}{{}}}
\bibcite{Kubitza}{{19}{2013}{{Kubitza}}{{}}}
\bibcite{Adafruit_ILI9341}{{20}{2016}{{Ladyada}}{{}}}
\bibcite{Leavitt}{{21}{2003}{{Leavitt}}{{}}}
\bibcite{Lindsay}{{22}{1982}{{Lindsay}}{{}}}
\bibcite{McCrea}{{23}{2011}{{McCrea}}{{}}}
\bibcite{beginArd}{{24}{2010}{{McRoberts}}{{}}}
\bibcite{GadgeteerHome}{{25}{2013}{{Microsoft}}{{}}}
\bibcite{ArdShields}{{26}{2015}{{Oxer}}{{}}}
\bibcite{Pearce}{{27}{2012}{{Pearce}}{{}}}
\bibcite{Perisic}{{28}{2014}{{Perisic}}{{}}}
\bibcite{Schmidt}{{29}{2011}{{Schmidt et~al.}}{{}}}
\bibcite{vitaSpecs}{{30}{2011}{{Sony}}{{}}}
\bibcite{ProsocialLearn}{{31}{2015}{{Star et~al.}}{{}}}
\bibcite{Melanie}{{32}{2012}{{Swalwell}}{{}}}
\bibcite{Tomesh:2014:DGC:2658537.2662411}{{33}{2014}{{Tomesh and Hepting}}{{}}}
\bibcite{PracAVR}{{34}{2012}{{Trevennor}}{{}}}
\bibcite{Vujovic}{{35}{2014}{{Vujovic}}{{}}}
